---
source: tests/snaphost_input_files.rs
expression: tokens
---
[
    Token {
        token_type: Keyword,
        slice: "for",
    },
    Token {
        token_type: Whitespace,
        slice: " ",
    },
    Token {
        token_type: Identifier,
        slice: "i",
    },
    Token {
        token_type: Symbol,
        slice: "=",
    },
    Token {
        token_type: Number,
        slice: "1",
    },
    Token {
        token_type: Symbol,
        slice: ",",
    },
    Token {
        token_type: Whitespace,
        slice: " ",
    },
    Token {
        token_type: Number,
        slice: "100",
    },
    Token {
        token_type: Whitespace,
        slice: " ",
    },
    Token {
        token_type: Keyword,
        slice: "do",
    },
    Token {
        token_type: Whitespace,
        slice: "\n    ",
    },
    Token {
        token_type: Identifier,
        slice: "print",
    },
    Token {
        token_type: Symbol,
        slice: "(",
    },
    Token {
        token_type: String,
        slice: "\"Hello!\"",
    },
    Token {
        token_type: Symbol,
        slice: ")",
    },
    Token {
        token_type: Whitespace,
        slice: "\n",
    },
    Token {
        token_type: Keyword,
        slice: "end",
    },
]
