---
source: tests/snaphost_input_files.rs
expression: tokens
---
[
    Token {
        token_type: Keyword,
        slice: "local",
    },
    Token {
        token_type: Whitespace,
        slice: " ",
    },
    Token {
        token_type: Identifier,
        slice: "emptyTable",
    },
    Token {
        token_type: Whitespace,
        slice: " ",
    },
    Token {
        token_type: Symbol,
        slice: "=",
    },
    Token {
        token_type: Whitespace,
        slice: " ",
    },
    Token {
        token_type: Symbol,
        slice: "{",
    },
    Token {
        token_type: Symbol,
        slice: "}",
    },
    Token {
        token_type: Whitespace,
        slice: "\n",
    },
    Token {
        token_type: Keyword,
        slice: "local",
    },
    Token {
        token_type: Whitespace,
        slice: " ",
    },
    Token {
        token_type: Identifier,
        slice: "list",
    },
    Token {
        token_type: Whitespace,
        slice: " ",
    },
    Token {
        token_type: Symbol,
        slice: "=",
    },
    Token {
        token_type: Whitespace,
        slice: " ",
    },
    Token {
        token_type: Symbol,
        slice: "{",
    },
    Token {
        token_type: String,
        slice: "\"Hi\"",
    },
    Token {
        token_type: Symbol,
        slice: ",",
    },
    Token {
        token_type: Whitespace,
        slice: " ",
    },
    Token {
        token_type: Number,
        slice: "0",
    },
    Token {
        token_type: Symbol,
        slice: "}",
    },
    Token {
        token_type: Whitespace,
        slice: "\n",
    },
    Token {
        token_type: Keyword,
        slice: "local",
    },
    Token {
        token_type: Whitespace,
        slice: " ",
    },
    Token {
        token_type: Identifier,
        slice: "dictionary",
    },
    Token {
        token_type: Whitespace,
        slice: " ",
    },
    Token {
        token_type: Symbol,
        slice: "=",
    },
    Token {
        token_type: Whitespace,
        slice: " ",
    },
    Token {
        token_type: Symbol,
        slice: "{",
    },
    Token {
        token_type: Whitespace,
        slice: "\n    ",
    },
    Token {
        token_type: Identifier,
        slice: "key",
    },
    Token {
        token_type: Whitespace,
        slice: " ",
    },
    Token {
        token_type: Symbol,
        slice: "=",
    },
    Token {
        token_type: Whitespace,
        slice: " ",
    },
    Token {
        token_type: String,
        slice: "\"value\"",
    },
    Token {
        token_type: Whitespace,
        slice: "\n",
    },
    Token {
        token_type: Symbol,
        slice: "}",
    },
    Token {
        token_type: Whitespace,
        slice: "\n",
    },
]
